{
  "images" : [
    {
      "filename" : "icMainLogo.pdf",
      "idiom" : "universal",
      "scale" : "1x"
    },
    {
      "filename" : "icMainLogo@2x.pdf",
      "idiom" : "universal",
      "scale" : "2x"
    },
    {
      "filename" : "icMainLogo@3x.pdf",
      "idiom" : "universal",
      "scale" : "3x"
    }
  ],
  "info" : {
    "author" : "xcode",
    "version" : 1
  }
}
